<?xml version="1.0" encoding="iso-8859-1"?>
<!-- Generator: Adobe Illustrator 18.1.1, SVG Export Plug-In . SVG Version: 6.00 Build 0)  -->
<svg version="1.1" id="Capa_1" xmlns="http://www.w3.org/2000/svg" xmlns:xlink="http://www.w3.org/1999/xlink" x="0px" y="0px"
	 viewBox="0 0 582.625 582.625" style="enable-background:new 0 0 582.625 582.625;" xml:space="preserve">
<g>
	<g>
		<path style="fill:#FFFFFF;" d="M284.58,78.585c6.528-4.488,13.26-5.1,20.195-1.836c6.939,4.08,10.404,9.792,10.404,17.136v92.412
			h248.473c5.305,0,9.791,1.836,13.463,5.508s5.51,8.364,5.51,14.076v171.358c0,5.306-1.838,9.791-5.51,13.466
			c-3.672,3.672-8.158,5.508-13.463,5.508H315.18v92.412c0,8.16-3.467,13.872-10.404,17.136c-6.936,3.264-13.667,2.855-20.195-1.224
			L7.956,307.472c-5.304-4.08-7.956-9.18-7.956-15.3c0-6.528,2.652-11.832,7.956-15.912L284.58,78.585L284.58,78.585z"/>
	</g>
</g>
<g>
</g>
<g>
</g>
<g>
</g>
<g>
</g>
<g>
</g>
<g>
</g>
<g>
</g>
<g>
</g>
<g>
</g>
<g>
</g>
<g>
</g>
<g>
</g>
<g>
</g>
<g>
</g>
<g>
</g>
</svg>
